%YAML 1.1
%TAG !u! tag:unity3d.com,2011:
--- !u!1 &1776854590930962159
GameObject:
  m_ObjectHideFlags: 0
  m_CorrespondingSourceObject: {fileID: 0}
  m_PrefabInstance: {fileID: 0}
  m_PrefabAsset: {fileID: 0}
  serializedVersion: 6
  m_Component:
  - component: {fileID: 6767056357603302058}
  m_Layer: 0
  m_Name: 0002
  m_TagString: Untagged
  m_Icon: {fileID: 0}
  m_NavMeshLayer: 0
  m_StaticEditorFlags: 0
  m_IsActive: 1
--- !u!4 &6767056357603302058
Transform:
  m_ObjectHideFlags: 0
  m_CorrespondingSourceObject: {fileID: 0}
  m_PrefabInstance: {fileID: 0}
  m_PrefabAsset: {fileID: 0}
  m_GameObject: {fileID: 1776854590930962159}
  m_LocalRotation: {x: 0, y: 0, z: 0, w: 1}
  m_LocalPosition: {x: 0, y: 0, z: 0}
  m_LocalScale: {x: 1, y: 1, z: 1}
  m_Children:
  - {fileID: 7207336430898989989}
  m_Father: {fileID: 0}
  m_RootOrder: 0
  m_LocalEulerAnglesHint: {x: 0, y: 0, z: 0}
--- !u!1001 &7207336430898518899
PrefabInstance:
  m_ObjectHideFlags: 0
  serializedVersion: 2
  m_Modification:
    m_TransformParent: {fileID: 6767056357603302058}
    m_Modifications:
    - target: {fileID: 110638, guid: 1e9dc57b9c268e84dbb8ede9289e1474, type: 3}
      propertyPath: m_Name
      value: ChestAppearYellow
      objectReference: {fileID: 0}
    - target: {fileID: 479446, guid: 1e9dc57b9c268e84dbb8ede9289e1474, type: 3}
      propertyPath: m_RootOrder
      value: 0
      objectReference: {fileID: 0}
    - target: {fileID: 479446, guid: 1e9dc57b9c268e84dbb8ede9289e1474, type: 3}
      propertyPath: m_LocalScale.x
      value: 1
      objectReference: {fileID: 0}
    - target: {fileID: 479446, guid: 1e9dc57b9c268e84dbb8ede9289e1474, type: 3}
      propertyPath: m_LocalScale.y
      value: 1
      objectReference: {fileID: 0}
    - target: {fileID: 479446, guid: 1e9dc57b9c268e84dbb8ede9289e1474, type: 3}
      propertyPath: m_LocalScale.z
      value: 1
      objectReference: {fileID: 0}
    - target: {fileID: 479446, guid: 1e9dc57b9c268e84dbb8ede9289e1474, type: 3}
      propertyPath: m_LocalPosition.x
      value: 0
      objectReference: {fileID: 0}
    - target: {fileID: 479446, guid: 1e9dc57b9c268e84dbb8ede9289e1474, type: 3}
      propertyPath: m_LocalPosition.y
      value: 0
      objectReference: {fileID: 0}
    - target: {fileID: 479446, guid: 1e9dc57b9c268e84dbb8ede9289e1474, type: 3}
      propertyPath: m_LocalPosition.z
      value: 0
      objectReference: {fileID: 0}
    - target: {fileID: 479446, guid: 1e9dc57b9c268e84dbb8ede9289e1474, type: 3}
      propertyPath: m_LocalRotation.w
      value: 0.7071068
      objectReference: {fileID: 0}
    - target: {fileID: 479446, guid: 1e9dc57b9c268e84dbb8ede9289e1474, type: 3}
      propertyPath: m_LocalRotation.x
      value: -0.7071068
      objectReference: {fileID: 0}
    - target: {fileID: 479446, guid: 1e9dc57b9c268e84dbb8ede9289e1474, type: 3}
      propertyPath: m_LocalRotation.y
      value: -0
      objectReference: {fileID: 0}
    - target: {fileID: 479446, guid: 1e9dc57b9c268e84dbb8ede9289e1474, type: 3}
      propertyPath: m_LocalRotation.z
      value: -0
      objectReference: {fileID: 0}
    - target: {fileID: 479446, guid: 1e9dc57b9c268e84dbb8ede9289e1474, type: 3}
      propertyPath: m_LocalEulerAnglesHint.x
      value: 0
      objectReference: {fileID: 0}
    - target: {fileID: 479446, guid: 1e9dc57b9c268e84dbb8ede9289e1474, type: 3}
      propertyPath: m_LocalEulerAnglesHint.y
      value: 0
      objectReference: {fileID: 0}
    - target: {fileID: 479446, guid: 1e9dc57b9c268e84dbb8ede9289e1474, type: 3}
      propertyPath: m_LocalEulerAnglesHint.z
      value: 0
      objectReference: {fileID: 0}
    - target: {fileID: 19807556, guid: 1e9dc57b9c268e84dbb8ede9289e1474, type: 3}
      propertyPath: InitialModule.startSize.scalar
      value: 5
      objectReference: {fileID: 0}
    - target: {fileID: 19807556, guid: 1e9dc57b9c268e84dbb8ede9289e1474, type: 3}
      propertyPath: InitialModule.startSize.minScalar
      value: 2
      objectReference: {fileID: 0}
    - target: {fileID: 19807556, guid: 1e9dc57b9c268e84dbb8ede9289e1474, type: 3}
      propertyPath: EmissionModule.m_Bursts.Array.data[0].countCurve.scalar
      value: 35
      objectReference: {fileID: 0}
    - target: {fileID: 19945764, guid: 1e9dc57b9c268e84dbb8ede9289e1474, type: 3}
      propertyPath: m_Materials.Array.size
      value: 1
      objectReference: {fileID: 0}
    - target: {fileID: 19975674, guid: 1e9dc57b9c268e84dbb8ede9289e1474, type: 3}
      propertyPath: m_Materials.Array.size
      value: 1
      objectReference: {fileID: 0}
    m_RemovedComponents: []
  m_SourcePrefab: {fileID: 100100000, guid: 1e9dc57b9c268e84dbb8ede9289e1474, type: 3}
--- !u!4 &7207336430898989989 stripped
Transform:
  m_CorrespondingSourceObject: {fileID: 479446, guid: 1e9dc57b9c268e84dbb8ede9289e1474, type: 3}
  m_PrefabInstance: {fileID: 7207336430898518899}
  m_PrefabAsset: {fileID: 0}
