%YAML 1.1
%TAG !u! tag:unity3d.com,2011:
--- !u!114 &11400000
MonoBehaviour:
  m_ObjectHideFlags: 0
  m_CorrespondingSourceObject: {fileID: 0}
  m_PrefabInstance: {fileID: 0}
  m_PrefabAsset: {fileID: 0}
  m_GameObject: {fileID: 0}
  m_Enabled: 1
  m_EditorHideFlags: 0
  m_Script: {fileID: 11500000, guid: 1bda35ea621bd8848b104996e01cdd81, type: 3}
  m_Name: DungeonBattleMember
  m_EditorClassIdentifier: 
  list_data_object_:
    list_data_object_:
    - index_: 0
      id_: 1
      pin01_unit_id_: 1
      pin02_unit_id_: 0
      pin03_unit_id_: 0
      pin04_unit_id_: 1
      pin05_unit_id_: 0
      pin06_unit_id_: 1
  data_id_: 0
  excel_load_path_: D:/Desk/UnityProject/01/unityproject01/UnityProject_ChigaDio/Assets/Project/Assets/Data/Map/9001/BattleMember/DungeonBattleMember.xlsx
  excel_load_sheet_name_: MemberData
  json_data_name: 
  json_data_save_path: 
  binary_data_name: 
  binary_data_save_path: 
  is_open_excel: 1
  is_open_json: 0
  is_open_binary: 0
