%YAML 1.1
%TAG !u! tag:unity3d.com,2011:
--- !u!114 &11400000
MonoBehaviour:
  m_ObjectHideFlags: 0
  m_CorrespondingSourceObject: {fileID: 0}
  m_PrefabInstance: {fileID: 0}
  m_PrefabAsset: {fileID: 0}
  m_GameObject: {fileID: 0}
  m_Enabled: 1
  m_EditorHideFlags: 0
  m_Script: {fileID: 11500000, guid: 8ba75337e31ea3a4dbe291eb20595b88, type: 3}
  m_Name: 0001_Combo
  m_EditorClassIdentifier: 
  list_data_object_:
    list_data_object_:
    - action_index_: 0
      action_name_: ATTACK_COMBO_A
      action_role_name_: Animation_Change
      action_id_: 0
      action_frame_: 0
      action_life__frame_: 1
      action_int_01_: 5006
      action_int_02_: 0
      action_int_03_: 0
      action_int_04_: 0
      action_float_01_: 0
      action_float_02_: 0
      action_float_03_: 0
      action_float_04_: 0
      action_string_01_: null
      action_string_02_: null
    - action_index_: 1
      action_name_: ATTACK_COMBO_A
      action_role_name_: Transform_Target_LookRotation
      action_id_: 1
      action_frame_: 0
      action_life__frame_: 10
      action_int_01_: 0
      action_int_02_: 0
      action_int_03_: 0
      action_int_04_: 0
      action_float_01_: 0
      action_float_02_: 0
      action_float_03_: 0
      action_float_04_: 0
      action_string_01_: null
      action_string_02_: null
    - action_index_: 2
      action_name_: ATTACK_COMBO_A
      action_role_name_: Transform_Position
      action_id_: 2
      action_frame_: 6
      action_life__frame_: 10
      action_int_01_: 2
      action_int_02_: 0
      action_int_03_: 0
      action_int_04_: 0
      action_float_01_: 0.05
      action_float_02_: 0
      action_float_03_: 0
      action_float_04_: 0
      action_string_01_: null
      action_string_02_: null
    - action_index_: 3
      action_name_: ATTACK_COMBO_A
      action_role_name_: Effect_Generate
      action_id_: 3
      action_frame_: 15
      action_life__frame_: 1
      action_int_01_: 3001
      action_int_02_: 0
      action_int_03_: 0
      action_int_04_: 0
      action_float_01_: 600
      action_float_02_: 0
      action_float_03_: 0
      action_float_04_: 3
      action_string_01_: null
      action_string_02_: null
    - action_index_: 4
      action_name_: ATTACK_COMBO_A
      action_role_name_: Collision_Attack
      action_id_: 4
      action_frame_: 15
      action_life__frame_: 1
      action_int_01_: 1
      action_int_02_: 2004
      action_int_03_: 0
      action_int_04_: 0
      action_float_01_: 0
      action_float_02_: 0
      action_float_03_: 0
      action_float_04_: 0
      action_string_01_: null
      action_string_02_: null
    - action_index_: 5
      action_name_: ATTACK_COMBO_A
      action_role_name_: Transform_Target_Homing
      action_id_: 5
      action_frame_: 18
      action_life__frame_: 60
      action_int_01_: 0
      action_int_02_: 0
      action_int_03_: 0
      action_int_04_: 0
      action_float_01_: 0.5
      action_float_02_: 0
      action_float_03_: 0
      action_float_04_: 0
      action_string_01_: null
      action_string_02_: null
    - action_index_: 6
      action_name_: ATTACK_COMBO_A
      action_role_name_: Animation_Change
      action_id_: 6
      action_frame_: 200
      action_life__frame_: 1
      action_int_01_: 5005
      action_int_02_: 0
      action_int_03_: 0
      action_int_04_: 0
      action_float_01_: 0
      action_float_02_: 0
      action_float_03_: 0
      action_float_04_: 0
      action_string_01_: null
      action_string_02_: null
    - action_index_: 7
      action_name_: ATTACK_COMBO_A
      action_role_name_: Transform_Position
      action_id_: 7
      action_frame_: 208
      action_life__frame_: 10
      action_int_01_: 2
      action_int_02_: 0
      action_int_03_: 0
      action_int_04_: 0
      action_float_01_: 0.1
      action_float_02_: 0
      action_float_03_: 0
      action_float_04_: 0
      action_string_01_: null
      action_string_02_: null
    - action_index_: 8
      action_name_: ATTACK_COMBO_A
      action_role_name_: Action_End
      action_id_: 8
      action_frame_: 300
      action_life__frame_: 1
      action_int_01_: 0
      action_int_02_: 0
      action_int_03_: 0
      action_int_04_: 0
      action_float_01_: 0
      action_float_02_: 0
      action_float_03_: 0
      action_float_04_: 0
      action_string_01_: null
      action_string_02_: null
    - action_index_: 9
      action_name_: ATTACK_COMBO_B
      action_role_name_: Transform_Target_LookRotation
      action_id_: 0
      action_frame_: 0
      action_life__frame_: 1
      action_int_01_: 0
      action_int_02_: 0
      action_int_03_: 0
      action_int_04_: 0
      action_float_01_: 0
      action_float_02_: 0
      action_float_03_: 0
      action_float_04_: 0
      action_string_01_: null
      action_string_02_: null
    - action_index_: 10
      action_name_: ATTACK_COMBO_B
      action_role_name_: Animation_Change
      action_id_: 1
      action_frame_: 0
      action_life__frame_: 1
      action_int_01_: 5008
      action_int_02_: 0
      action_int_03_: 0
      action_int_04_: 0
      action_float_01_: 0
      action_float_02_: 0
      action_float_03_: 0
      action_float_04_: 0
      action_string_01_: null
      action_string_02_: null
    - action_index_: 11
      action_name_: ATTACK_COMBO_B
      action_role_name_: Transform_Target_Homing
      action_id_: 2
      action_frame_: 10
      action_life__frame_: 300
      action_int_01_: 0
      action_int_02_: 0
      action_int_03_: 0
      action_int_04_: 0
      action_float_01_: 10
      action_float_02_: 0
      action_float_03_: 0
      action_float_04_: 0
      action_string_01_: null
      action_string_02_: null
    - action_index_: 12
      action_name_: ATTACK_COMBO_B
      action_role_name_: Bullet_Generate
      action_id_: 3
      action_frame_: 10
      action_life__frame_: 1
      action_int_01_: 6001
      action_int_02_: 2
      action_int_03_: 0
      action_int_04_: 0
      action_float_01_: 0
      action_float_02_: 0
      action_float_03_: 0
      action_float_04_: 0
      action_string_01_: null
      action_string_02_: null
    - action_index_: 13
      action_name_: ATTACK_COMBO_B
      action_role_name_: Bullet_Generate
      action_id_: 4
      action_frame_: 60
      action_life__frame_: 1
      action_int_01_: 6001
      action_int_02_: 2
      action_int_03_: 0
      action_int_04_: 0
      action_float_01_: 0
      action_float_02_: 0
      action_float_03_: 0
      action_float_04_: 0
      action_string_01_: null
      action_string_02_: null
    - action_index_: 14
      action_name_: ATTACK_COMBO_B
      action_role_name_: Bullet_Generate
      action_id_: 5
      action_frame_: 120
      action_life__frame_: 1
      action_int_01_: 6001
      action_int_02_: 2
      action_int_03_: 0
      action_int_04_: 0
      action_float_01_: 0
      action_float_02_: 0
      action_float_03_: 0
      action_float_04_: 0
      action_string_01_: null
      action_string_02_: null
    - action_index_: 15
      action_name_: ATTACK_COMBO_B
      action_role_name_: Transform_Target_Homing
      action_id_: 6
      action_frame_: 180
      action_life__frame_: 200
      action_int_01_: 0
      action_int_02_: 0
      action_int_03_: 0
      action_int_04_: 0
      action_float_01_: 10
      action_float_02_: 0
      action_float_03_: 0
      action_float_04_: 0
      action_string_01_: null
      action_string_02_: null
    - action_index_: 16
      action_name_: ATTACK_COMBO_B
      action_role_name_: Animation_Change
      action_id_: 7
      action_frame_: 200
      action_life__frame_: 1
      action_int_01_: 5001
      action_int_02_: 0
      action_int_03_: 0
      action_int_04_: 0
      action_float_01_: 0
      action_float_02_: 0
      action_float_03_: 0
      action_float_04_: 0
      action_string_01_: null
      action_string_02_: null
    - action_index_: 17
      action_name_: ATTACK_COMBO_B
      action_role_name_: Action_End
      action_id_: 8
      action_frame_: 0
      action_life__frame_: 1
      action_int_01_: 0
      action_int_02_: 0
      action_int_03_: 0
      action_int_04_: 0
      action_float_01_: 0
      action_float_02_: 0
      action_float_03_: 0
      action_float_04_: 0
      action_string_01_: 0
      action_string_02_: 0
    - action_index_: 18
      action_name_: Damage_KnockBack_S
      action_role_name_: Animation_Change
      action_id_: 0
      action_frame_: 0
      action_life__frame_: 1
      action_int_01_: 5004
      action_int_02_: 0
      action_int_03_: 0
      action_int_04_: 0
      action_float_01_: 0
      action_float_02_: 0
      action_float_03_: 0
      action_float_04_: 0
      action_string_01_: null
      action_string_02_: null
    - action_index_: 19
      action_name_: Damage_KnockBack_S
      action_role_name_: Transform_Target_LookRotation
      action_id_: 1
      action_frame_: 0
      action_life__frame_: 1
      action_int_01_: 0
      action_int_02_: 0
      action_int_03_: 0
      action_int_04_: 0
      action_float_01_: 0
      action_float_02_: 0
      action_float_03_: 0
      action_float_04_: 0
      action_string_01_: null
      action_string_02_: null
    - action_index_: 20
      action_name_: Damage_KnockBack_S
      action_role_name_: Transform_Position
      action_id_: 2
      action_frame_: 0
      action_life__frame_: 60
      action_int_01_: 2
      action_int_02_: 0
      action_int_03_: 0
      action_int_04_: 0
      action_float_01_: -0.05
      action_float_02_: 0
      action_float_03_: 0
      action_float_04_: 0
      action_string_01_: null
      action_string_02_: null
    - action_index_: 21
      action_name_: Damage_KnockBack_S
      action_role_name_: Action_End
      action_id_: 3
      action_frame_: 120
      action_life__frame_: 1
      action_int_01_: 0
      action_int_02_: 0
      action_int_03_: 0
      action_int_04_: 0
      action_float_01_: 0
      action_float_02_: 0
      action_float_03_: 0
      action_float_04_: 0
      action_string_01_: null
      action_string_02_: null
  data_id_: 1
  excel_load_path_: D:/Desk/UnityProject/01/unityproject01/UnityProject_ChigaDio/Assets/Project/Assets/Data/MotionData
  excel_load_sheet_name_: Combo
  json_data_name: Combo
  json_data_save_path: D:/Desk/UnityProject/01/unityproject01/UnityProject_ChigaDio/Assets/Project/Assets/Data/MotionData/0001
  binary_data_name: 
  binary_data_save_path: 
  is_open_excel: 1
  is_open_json: 1
  is_open_binary: 1
