%YAML 1.1
%TAG !u! tag:unity3d.com,2011:
--- !u!114 &11400000
MonoBehaviour:
  m_ObjectHideFlags: 0
  m_CorrespondingSourceObject: {fileID: 0}
  m_PrefabInstance: {fileID: 0}
  m_PrefabAsset: {fileID: 0}
  m_GameObject: {fileID: 0}
  m_Enabled: 1
  m_EditorHideFlags: 0
  m_Script: {fileID: 11500000, guid: 2f3386625292a1a498029be28f1618a8, type: 3}
  m_Name: CharacterDictionary
  m_EditorClassIdentifier: 
  list_data_object_:
    list_data_object_:
    - id_: 1
      name_: Mock_Player
      details_: Null
  data_id_: 0
  excel_load_path_: D:/Desk/UnityProject/01/unityproject01/UnityProject_ChigaDio/Assets/Project/Assets/Data/Dictionary/Character_Dictionary.xlsx
  excel_load_sheet_name_: Dictionary
  json_data_name: 
  json_data_save_path: 
  binary_data_name: 
  binary_data_save_path: 
  is_open_excel: 1
  is_open_json: 0
  is_open_binary: 0
