%YAML 1.1
%TAG !u! tag:unity3d.com,2011:
--- !u!114 &11400000
MonoBehaviour:
  m_ObjectHideFlags: 0
  m_CorrespondingSourceObject: {fileID: 0}
  m_PrefabInstance: {fileID: 0}
  m_PrefabAsset: {fileID: 0}
  m_GameObject: {fileID: 0}
  m_Enabled: 1
  m_EditorHideFlags: 0
  m_Script: {fileID: 11500000, guid: 2f3386625292a1a498029be28f1618a8, type: 3}
  m_Name: SoundDictionary
  m_EditorClassIdentifier: 
  list_data_object_:
    list_data_object_:
    - id_: 1
      name_: Hit_Effect_Sound
      details_: "\u30D2\u30C3\u30C8\u30A8\u30D5\u30A7\u30AF\u30C8\u30B5\u30A6\u30F3\u30C9"
    - id_: 501
      name_: BGM_Piano_Sound
      details_: "\u30D4\u30A2\u30CE\u30B5\u30A6\u30F3\u30C9(\u60B2\u3057\u3044\u7CFB)"
  data_id_: 0
  excel_load_path_: D:/Desk/UnityProject/01/unityproject01/UnityProject_ChigaDio/Assets/Project/Assets/Data/Dictionary/Sound_Dictionary.xlsx
  excel_load_sheet_name_: DIctionary
  json_data_name: 
  json_data_save_path: 
  binary_data_name: 
  binary_data_save_path: 
  is_open_excel: 1
  is_open_json: 0
  is_open_binary: 0
