%YAML 1.1
%TAG !u! tag:unity3d.com,2011:
--- !u!114 &11400000
MonoBehaviour:
  m_ObjectHideFlags: 0
  m_CorrespondingSourceObject: {fileID: 0}
  m_PrefabInstance: {fileID: 0}
  m_PrefabAsset: {fileID: 0}
  m_GameObject: {fileID: 0}
  m_Enabled: 1
  m_EditorHideFlags: 0
  m_Script: {fileID: 11500000, guid: e3cc9e91a035616428a4d20d696c1aa9, type: 3}
  m_Name: UI
  m_EditorClassIdentifier: 
  list_data_object_:
    list_data_object_:
    - index_: 0
      id_: 2001
      sound_id_: 1
      sound_type_: 0
      sound_volume: 1
    - index_: 1
      id_: 2501
      sound_id_: 501
      sound_type_: 1
      sound_volume: 0.8
  data_id_: 0
  excel_load_path_: D:/Desk/UnityProject/01/unityproject01/UnityProject_ChigaDio/Assets/Project/Assets/Data/Sound/UI/UI.xlsx
  excel_load_sheet_name_: Data
  json_data_name: 
  json_data_save_path: 
  binary_data_name: 
  binary_data_save_path: 
  is_open_excel: 1
  is_open_json: 0
  is_open_binary: 0
